-------------------------------------------------------------------------------
Test set: com.lip6.gpstl.dao.hibernate.HibernateConfigurationTest
-------------------------------------------------------------------------------
Tests run: 1, Failures: 0, Errors: 0, Skipped: 0, Time elapsed: 0.122 sec
