-------------------------------------------------------------------------------
Test set: com.lip6.gpstl.service.impl.PasswordTokenManagerTest
-------------------------------------------------------------------------------
Tests run: 2, Failures: 0, Errors: 0, Skipped: 0, Time elapsed: 10.122 sec
