-------------------------------------------------------------------------------
Test set: com.lip6.gpstl.util.DateConverterTest
-------------------------------------------------------------------------------
Tests run: 8, Failures: 0, Errors: 0, Skipped: 0, Time elapsed: 0.058 sec
