<?xml version="1.0" encoding="UTF-8" ?>
<testsuite failures="0" time="10.12" errors="0" skipped="0" tests="2" name="com.lip6.gpstl.service.impl.PasswordTokenManagerTest">
  <properties>
    <property name="java.runtime.name" value="Java(TM) SE Runtime Environment"/>
    <property name="sun.boot.library.path" value="/home/congnt/dev-lapcode-projet/jdk1.7.0_07/jre/lib/amd64"/>
    <property name="java.vm.version" value="23.3-b01"/>
    <property name="java.vm.vendor" value="Oracle Corporation"/>
    <property name="java.vendor.url" value="http://java.oracle.com/"/>
    <property name="path.separator" value=":"/>
    <property name="guice.disable.misplaced.annotation.check" value="true"/>
    <property name="java.vm.name" value="Java HotSpot(TM) 64-Bit Server VM"/>
    <property name="file.encoding.pkg" value="sun.io"/>
    <property name="user.country" value="US"/>
    <property name="sun.java.launcher" value="SUN_STANDARD"/>
    <property name="sun.os.patch.level" value="unknown"/>
    <property name="java.vm.specification.name" value="Java Virtual Machine Specification"/>
    <property name="user.dir" value="/home/congnt/dev-lapcode-projet/labcode/core"/>
    <property name="java.runtime.version" value="1.7.0_07-b10"/>
    <property name="java.awt.graphicsenv" value="sun.awt.X11GraphicsEnvironment"/>
    <property name="java.endorsed.dirs" value="/home/congnt/dev-lapcode-projet/jdk1.7.0_07/jre/lib/endorsed"/>
    <property name="os.arch" value="amd64"/>
    <property name="java.io.tmpdir" value="/tmp"/>
    <property name="line.separator" value="
"/>
    <property name="java.vm.specification.vendor" value="Oracle Corporation"/>
    <property name="os.name" value="Linux"/>
    <property name="classworlds.conf" value="/home/congnt/dev-lapcode-projet/apache-maven-3.2.3/bin/m2.conf"/>
    <property name="sun.jnu.encoding" value="UTF-8"/>
    <property name="java.library.path" value="/usr/java/packages/lib/amd64:/usr/lib64:/lib64:/lib:/usr/lib"/>
    <property name="java.specification.name" value="Java Platform API Specification"/>
    <property name="java.class.version" value="51.0"/>
    <property name="sun.management.compiler" value="HotSpot 64-Bit Tiered Compilers"/>
    <property name="os.version" value="2.6.32-66-generic"/>
    <property name="user.home" value="/home/congnt"/>
    <property name="user.timezone" value="Europe/Paris"/>
    <property name="java.awt.printerjob" value="sun.print.PSPrinterJob"/>
    <property name="file.encoding" value="UTF-8"/>
    <property name="java.specification.version" value="1.7"/>
    <property name="user.name" value="congnt"/>
    <property name="java.class.path" value="/home/congnt/dev-lapcode-projet/apache-maven-3.2.3/boot/plexus-classworlds-2.5.1.jar"/>
    <property name="java.vm.specification.version" value="1.7"/>
    <property name="sun.arch.data.model" value="64"/>
    <property name="java.home" value="/home/congnt/dev-lapcode-projet/jdk1.7.0_07/jre"/>
    <property name="sun.java.command" value="org.codehaus.plexus.classworlds.launcher.Launcher install"/>
    <property name="java.specification.vendor" value="Oracle Corporation"/>
    <property name="user.language" value="en"/>
    <property name="awt.toolkit" value="sun.awt.X11.XToolkit"/>
    <property name="java.vm.info" value="mixed mode"/>
    <property name="java.version" value="1.7.0_07"/>
    <property name="java.ext.dirs" value="/home/congnt/dev-lapcode-projet/jdk1.7.0_07/jre/lib/ext:/usr/java/packages/lib/ext"/>
    <property name="securerandom.source" value="file:/dev/./urandom"/>
    <property name="sun.boot.class.path" value="/home/congnt/dev-lapcode-projet/jdk1.7.0_07/jre/lib/resources.jar:/home/congnt/dev-lapcode-projet/jdk1.7.0_07/jre/lib/rt.jar:/home/congnt/dev-lapcode-projet/jdk1.7.0_07/jre/lib/sunrsasign.jar:/home/congnt/dev-lapcode-projet/jdk1.7.0_07/jre/lib/jsse.jar:/home/congnt/dev-lapcode-projet/jdk1.7.0_07/jre/lib/jce.jar:/home/congnt/dev-lapcode-projet/jdk1.7.0_07/jre/lib/charsets.jar:/home/congnt/dev-lapcode-projet/jdk1.7.0_07/jre/lib/jfr.jar:/home/congnt/dev-lapcode-projet/jdk1.7.0_07/jre/classes"/>
    <property name="java.vendor" value="Oracle Corporation"/>
    <property name="maven.home" value="/home/congnt/dev-lapcode-projet/apache-maven-3.2.3"/>
    <property name="file.separator" value="/"/>
    <property name="java.vendor.url.bug" value="http://bugreport.sun.com/bugreport/"/>
    <property name="sun.cpu.endian" value="little"/>
    <property name="sun.io.unicode.encoding" value="UnicodeLittle"/>
    <property name="sun.desktop" value="gnome"/>
    <property name="sun.cpu.isalist" value=""/>
  </properties>
  <testcase time="9.912" classname="com.lip6.gpstl.service.impl.PasswordTokenManagerTest" name="testConsumeRecoveryToken"/>
  <testcase time="0.208" classname="com.lip6.gpstl.service.impl.PasswordTokenManagerTest" name="testGenerateRecoveryToken"/>
</testsuite>